"mBP - 4";"mBP - 3";"mBP - 2";"mBP - 1";"mBP - 0";"Collapse";"Window id";"mBP + 1 (horizon)"
109.039459229;109.795173645;110.768730164;110.848350525;109.771682739;0;0;108.658584595
109.795173645;110.768730164;110.848350525;109.771682739;108.658584595;0;1;110.735687256
110.768730164;110.848350525;109.771682739;108.658584595;110.735687256;0;2;112.062614441
110.848350525;109.771682739;108.658584595;110.735687256;112.062614441;0;3;111.870422363
109.771682739;108.658584595;110.735687256;112.062614441;111.870422363;0;4;109.937690735
108.658584595;110.735687256;112.062614441;111.870422363;109.937690735;0;5;116.304656982
110.735687256;112.062614441;111.870422363;109.937690735;116.304656982;0;6;117.316894531
112.062614441;111.870422363;109.937690735;116.304656982;117.316894531;0;7;116.654808044
111.870422363;109.937690735;116.304656982;117.316894531;116.654808044;0;8;114.358322144
109.937690735;116.304656982;117.316894531;116.654808044;114.358322144;0;9;112.051017761
116.304656982;117.316894531;116.654808044;114.358322144;112.051017761;0;10;114.233322144
117.316894531;116.654808044;114.358322144;112.051017761;114.233322144;0;11;116.295837402
116.654808044;114.358322144;112.051017761;114.233322144;116.295837402;0;12;115.204582214
114.358322144;112.051017761;114.233322144;116.295837402;115.204582214;0;13;112.901298523
112.051017761;114.233322144;116.295837402;115.204582214;112.901298523;0;14;115.095413208
114.233322144;116.295837402;115.204582214;112.901298523;115.095413208;0;15;118.336036682
116.295837402;115.204582214;112.901298523;115.095413208;118.336036682;0;16;119.902694702
115.204582214;112.901298523;115.095413208;118.336036682;119.902694702;0;17;118.208190918
112.901298523;115.095413208;118.336036682;119.902694702;118.208190918;0;18;119.406822205
115.095413208;118.336036682;119.902694702;118.208190918;119.406822205;0;19;121.231872559
118.336036682;119.902694702;118.208190918;119.406822205;121.231872559;0;20;120.540870667
119.902694702;118.208190918;119.406822205;121.231872559;120.540870667;0;21;118.343963623
118.208190918;119.406822205;121.231872559;120.540870667;118.343963623;0;22;120.59954071
119.406822205;121.231872559;120.540870667;118.343963623;120.59954071;0;23;120.306007385
121.231872559;120.540870667;118.343963623;120.59954071;120.306007385;0;24;119.496688843
120.540870667;118.343963623;120.59954071;120.306007385;119.496688843;0;25;115.801986694
118.343963623;120.59954071;120.306007385;119.496688843;115.801986694;0;26;118.048835754
120.59954071;120.306007385;119.496688843;115.801986694;118.048835754;0;27;120.28326416
120.306007385;119.496688843;115.801986694;118.048835754;120.28326416;0;28;119.276939392
119.496688843;115.801986694;118.048835754;120.28326416;119.276939392;0;29;115.380447388
115.801986694;118.048835754;120.28326416;119.276939392;115.380447388;0;30;116.411743164
118.048835754;120.28326416;119.276939392;115.380447388;116.411743164;0;31;118.507095337
120.28326416;119.276939392;115.380447388;116.411743164;118.507095337;0;32;119.19178009
119.276939392;115.380447388;116.411743164;118.507095337;119.19178009;0;33;116.101676941
115.380447388;116.411743164;118.507095337;119.19178009;116.101676941;0;34;112.891571045
116.411743164;118.507095337;119.19178009;116.101676941;112.891571045;0;35;109.825927734
118.507095337;119.19178009;116.101676941;112.891571045;109.825927734;0;36;110.006088257
119.19178009;116.101676941;112.891571045;109.825927734;110.006088257;0;37;111.305458069
116.101676941;112.891571045;109.825927734;110.006088257;111.305458069;0;38;111.1875
112.891571045;109.825927734;110.006088257;111.305458069;111.1875;0;39;110.016220093
109.825927734;110.006088257;111.305458069;111.1875;110.016220093;0;40;107.305801392
110.006088257;111.305458069;111.1875;110.016220093;107.305801392;0;41;108.553955078
111.305458069;111.1875;110.016220093;107.305801392;108.553955078;0;42;111.577789307
111.1875;110.016220093;107.305801392;108.553955078;111.577789307;0;43;113.401329041
110.016220093;107.305801392;108.553955078;111.577789307;113.401329041;0;44;113.542640686
107.305801392;108.553955078;111.577789307;113.401329041;113.542640686;0;45;112.261032104
108.553955078;111.577789307;113.401329041;113.542640686;112.261032104;0;46;114.019935608
111.577789307;113.401329041;113.542640686;112.261032104;114.019935608;0;47;117.200004578
113.401329041;113.542640686;112.261032104;114.019935608;117.200004578;0;48;118.473571777
113.542640686;112.261032104;114.019935608;117.200004578;118.473571777;0;49;117.518936157
112.261032104;114.019935608;117.200004578;118.473571777;117.518936157;0;50;116.652191162
114.019935608;117.200004578;118.473571777;117.518936157;116.652191162;0;51;113.376296997
117.200004578;118.473571777;117.518936157;116.652191162;113.376296997;0;52;112.241691589
118.473571777;117.518936157;116.652191162;113.376296997;112.241691589;0;53;113.099067688
117.518936157;116.652191162;113.376296997;112.241691589;113.099067688;0;54;113.663589478
98.2015304565;96.391204834;97.1055831909;96.0970077515;97.7816467285;0;0;97.613494873
96.391204834;97.1055831909;96.0970077515;97.7816467285;97.613494873;0;1;97.0635452271
97.1055831909;96.0970077515;97.7816467285;97.613494873;97.0635452271;0;2;99.5136413574
96.0970077515;97.7816467285;97.613494873;97.0635452271;99.5136413574;0;3;98.7847061157
97.7816467285;97.613494873;97.0635452271;99.5136413574;98.7847061157;0;4;98.4841842651
97.613494873;97.0635452271;99.5136413574;98.7847061157;98.4841842651;0;5;97.0846862793
97.0635452271;99.5136413574;98.7847061157;98.4841842651;97.0846862793;0;6;96.4475784302
99.5136413574;98.7847061157;98.4841842651;97.0846862793;96.4475784302;0;7;95.7225189209
98.7847061157;98.4841842651;97.0846862793;96.4475784302;95.7225189209;0;8;94.9277801514
98.4841842651;97.0846862793;96.4475784302;95.7225189209;94.9277801514;0;9;94.1520767212
97.0846862793;96.4475784302;95.7225189209;94.9277801514;94.1520767212;0;10;95.2038116455
96.4475784302;95.7225189209;94.9277801514;94.1520767212;95.2038116455;0;11;94.9190216064
95.7225189209;94.9277801514;94.1520767212;95.2038116455;94.9190216064;0;12;93.8731918335
94.9277801514;94.1520767212;95.2038116455;94.9190216064;93.8731918335;0;13;96.542678833
94.1520767212;95.2038116455;94.9190216064;93.8731918335;96.542678833;0;14;97.7735366821
95.2038116455;94.9190216064;93.8731918335;96.542678833;97.7735366821;0;15;96.2786178589
94.9190216064;93.8731918335;96.542678833;97.7735366821;96.2786178589;0;16;97.6781463623
93.8731918335;96.542678833;97.7735366821;96.2786178589;97.6781463623;0;17;97.6374588013
96.542678833;97.7735366821;96.2786178589;97.6781463623;97.6374588013;0;18;97.4527664185
97.7735366821;96.2786178589;97.6781463623;97.6374588013;97.4527664185;0;19;98.4482269287
96.2786178589;97.6781463623;97.6374588013;97.4527664185;98.4482269287;0;20;97.3354263306
97.6781463623;97.6374588013;97.4527664185;98.4482269287;97.3354263306;0;21;97.2576293945
97.6374588013;97.4527664185;98.4482269287;97.3354263306;97.2576293945;0;22;98.2516860962
97.4527664185;98.4482269287;97.3354263306;97.2576293945;98.2516860962;0;23;97.4925460815
98.4482269287;97.3354263306;97.2576293945;98.2516860962;97.4925460815;0;24;97.4857406616
97.3354263306;97.2576293945;98.2516860962;97.4925460815;97.4857406616;0;25;98.8070983887
97.2576293945;98.2516860962;97.4925460815;97.4857406616;98.8070983887;0;26;98.5881500244
98.2516860962;97.4925460815;97.4857406616;98.8070983887;98.5881500244;0;27;98.4565505981
97.4925460815;97.4857406616;98.8070983887;98.5881500244;98.4565505981;0;28;99.3965454102
97.4857406616;98.8070983887;98.5881500244;98.4565505981;99.3965454102;0;29;98.9855728149
98.8070983887;98.5881500244;98.4565505981;99.3965454102;98.9855728149;0;30;98.7873764038
98.5881500244;98.4565505981;99.3965454102;98.9855728149;98.7873764038;0;31;99.13230896
98.4565505981;99.3965454102;98.9855728149;98.7873764038;99.13230896;0;32;98.8055114746
99.3965454102;98.9855728149;98.7873764038;99.13230896;98.8055114746;0;33;98.2969284058
98.9855728149;98.7873764038;99.13230896;98.8055114746;98.2969284058;0;34;97.9661178589
98.7873764038;99.13230896;98.8055114746;98.2969284058;97.9661178589;0;35;98.8231964111
99.13230896;98.8055114746;98.2969284058;97.9661178589;98.8231964111;0;36;97.980506897
98.8055114746;98.2969284058;97.9661178589;98.8231964111;97.980506897;0;37;97.0718841553
98.2969284058;97.9661178589;98.8231964111;97.980506897;97.0718841553;0;38;97.301071167
97.9661178589;98.8231964111;97.980506897;97.0718841553;97.301071167;0;39;95.5310516357
98.8231964111;97.980506897;97.0718841553;97.301071167;95.5310516357;0;40;94.4287338257
97.980506897;97.0718841553;97.301071167;95.5310516357;94.4287338257;0;41;95.2723922729
97.0718841553;97.301071167;95.5310516357;94.4287338257;95.2723922729;0;42;94.9431991577
97.301071167;95.5310516357;94.4287338257;95.2723922729;94.9431991577;0;43;93.6873779297
95.5310516357;94.4287338257;95.2723922729;94.9431991577;93.6873779297;0;44;94.4725341797
94.4287338257;95.2723922729;94.9431991577;93.6873779297;94.4725341797;0;45;94.9550704956
95.2723922729;94.9431991577;93.6873779297;94.4725341797;94.9550704956;0;46;95.0246887207
94.9431991577;93.6873779297;94.4725341797;94.9550704956;95.0246887207;0;47;96.5804443359
93.6873779297;94.4725341797;94.9550704956;95.0246887207;96.5804443359;0;48;97.7600631714
94.4725341797;94.9550704956;95.0246887207;96.5804443359;97.7600631714;0;49;97.3366546631
94.9550704956;95.0246887207;96.5804443359;97.7600631714;97.3366546631;0;50;98.0880126953
95.0246887207;96.5804443359;97.7600631714;97.3366546631;98.0880126953;0;51;98.5629348755
96.5804443359;97.7600631714;97.3366546631;98.0880126953;98.5629348755;0;52;97.197013855
97.7600631714;97.3366546631;98.0880126953;98.5629348755;97.197013855;0;53;96.6507720947
97.3366546631;98.0880126953;98.5629348755;97.197013855;96.6507720947;0;54;96.7969512939
84.9401931763;84.9388656616;84.1664428711;83.08568573;83.6406478882;0;0;85.0451278687
84.9388656616;84.1664428711;83.08568573;83.6406478882;85.0451278687;0;1;85.7900314331
84.1664428711;83.08568573;83.6406478882;85.0451278687;85.7900314331;0;2;85.6236343384
83.08568573;83.6406478882;85.0451278687;85.7900314331;85.6236343384;0;3;84.7503509521
83.6406478882;85.0451278687;85.7900314331;85.6236343384;84.7503509521;0;4;86.0742340088
85.0451278687;85.7900314331;85.6236343384;84.7503509521;86.0742340088;0;5;85.7380523682
85.7900314331;85.6236343384;84.7503509521;86.0742340088;85.7380523682;0;6;85.2274093628
85.6236343384;84.7503509521;86.0742340088;85.7380523682;85.2274093628;0;7;84.2257385254
84.7503509521;86.0742340088;85.7380523682;85.2274093628;84.2257385254;0;8;84.8958358765
86.0742340088;85.7380523682;85.2274093628;84.2257385254;84.8958358765;0;9;85.8161621094
85.7380523682;85.2274093628;84.2257385254;84.8958358765;85.8161621094;0;10;85.5879821777
85.2274093628;84.2257385254;84.8958358765;85.8161621094;85.5879821777;0;11;84.4806518555
84.2257385254;84.8958358765;85.8161621094;85.5879821777;84.4806518555;0;12;83.2014389038
84.8958358765;85.8161621094;85.5879821777;84.4806518555;83.2014389038;0;13;84.4695587158
85.8161621094;85.5879821777;84.4806518555;83.2014389038;84.4695587158;0;14;84.6122055054
85.5879821777;84.4806518555;83.2014389038;84.4695587158;84.6122055054;0;15;84.3748779297
84.4806518555;83.2014389038;84.4695587158;84.6122055054;84.3748779297;0;16;83.8566589355
83.2014389038;84.4695587158;84.6122055054;84.3748779297;83.8566589355;0;17;85.1512832642
84.4695587158;84.6122055054;84.3748779297;83.8566589355;85.1512832642;0;18;86.2104873657
84.6122055054;84.3748779297;83.8566589355;85.1512832642;86.2104873657;0;19;86.9857711792
84.3748779297;83.8566589355;85.1512832642;86.2104873657;86.9857711792;0;20;86.936958313
83.8566589355;85.1512832642;86.2104873657;86.9857711792;86.936958313;0;21;86.0731430054
85.1512832642;86.2104873657;86.9857711792;86.936958313;86.0731430054;0;22;86.8678512573
86.2104873657;86.9857711792;86.936958313;86.0731430054;86.8678512573;0;23;87.4902877808
86.9857711792;86.936958313;86.0731430054;86.8678512573;87.4902877808;0;24;87.5505905151
86.936958313;86.0731430054;86.8678512573;87.4902877808;87.5505905151;0;25;86.9873733521
86.0731430054;86.8678512573;87.4902877808;87.5505905151;86.9873733521;0;26;86.1060409546
86.8678512573;87.4902877808;87.5505905151;86.9873733521;86.1060409546;0;27;86.9303970337
87.4902877808;87.5505905151;86.9873733521;86.1060409546;86.9303970337;0;28;86.7223968506
87.5505905151;86.9873733521;86.1060409546;86.9303970337;86.7223968506;0;29;85.5109786987
86.9873733521;86.1060409546;86.9303970337;86.7223968506;85.5109786987;0;30;84.1463775635
86.1060409546;86.9303970337;86.7223968506;85.5109786987;84.1463775635;0;31;85.1790237427
86.9303970337;86.7223968506;85.5109786987;84.1463775635;85.1790237427;0;32;86.0893707275
86.7223968506;85.5109786987;84.1463775635;85.1790237427;86.0893707275;0;33;87.0001373291
85.5109786987;84.1463775635;85.1790237427;86.0893707275;87.0001373291;0;34;87.0437698364
84.1463775635;85.1790237427;86.0893707275;87.0001373291;87.0437698364;0;35;88.8776016235
85.1790237427;86.0893707275;87.0001373291;87.0437698364;88.8776016235;0;36;88.550819397
86.0893707275;87.0001373291;87.0437698364;88.8776016235;88.550819397;0;37;86.9032211304
87.0001373291;87.0437698364;88.8776016235;88.550819397;86.9032211304;0;38;84.654006958
87.0437698364;88.8776016235;88.550819397;86.9032211304;84.654006958;0;39;84.1624603271
88.8776016235;88.550819397;86.9032211304;84.654006958;84.1624603271;0;40;83.1452178955
88.550819397;86.9032211304;84.654006958;84.1624603271;83.1452178955;0;41;82.5380477905
86.9032211304;84.654006958;84.1624603271;83.1452178955;82.5380477905;0;42;81.0954437256
84.654006958;84.1624603271;83.1452178955;82.5380477905;81.0954437256;0;43;82.3499755859
84.1624603271;83.1452178955;82.5380477905;81.0954437256;82.3499755859;0;44;83.5899658203
83.1452178955;82.5380477905;81.0954437256;82.3499755859;83.5899658203;0;45;84.2861022949
82.5380477905;81.0954437256;82.3499755859;83.5899658203;84.2861022949;0;46;84.8487319946
81.0954437256;82.3499755859;83.5899658203;84.2861022949;84.8487319946;0;47;86.6464767456
82.3499755859;83.5899658203;84.2861022949;84.8487319946;86.6464767456;0;48;87.1446228027
83.5899658203;84.2861022949;84.8487319946;86.6464767456;87.1446228027;0;49;87.1895599365
84.2861022949;84.8487319946;86.6464767456;87.1446228027;87.1895599365;0;50;88.4690246582
84.8487319946;86.6464767456;87.1446228027;87.1895599365;88.4690246582;0;51;90.1603546143
86.6464767456;87.1446228027;87.1895599365;88.4690246582;90.1603546143;0;52;90.7084579468
87.1446228027;87.1895599365;88.4690246582;90.1603546143;90.7084579468;0;53;90.665397644
87.1895599365;88.4690246582;90.1603546143;90.7084579468;90.665397644;0;54;89.6425476074
88.4738311768;87.7809448242;88.4225921631;89.2038955688;89.1964187622;1;0;90.3902053833
87.7809448242;88.4225921631;89.2038955688;89.1964187622;90.3902053833;1;1;89.5028762817
88.4225921631;89.2038955688;89.1964187622;90.3902053833;89.5028762817;1;2;89.9624023438
89.2038955688;89.1964187622;90.3902053833;89.5028762817;89.9624023438;1;3;90.9947967529
89.1964187622;90.3902053833;89.5028762817;89.9624023438;90.9947967529;1;4;92.1274185181
90.3902053833;89.5028762817;89.9624023438;90.9947967529;92.1274185181;1;5;91.1747512817
89.5028762817;89.9624023438;90.9947967529;92.1274185181;91.1747512817;1;6;92.8093032837
89.9624023438;90.9947967529;92.1274185181;91.1747512817;92.8093032837;1;7;93.5539550781
90.9947967529;92.1274185181;91.1747512817;92.8093032837;93.5539550781;1;8;93.3836975098
92.1274185181;91.1747512817;92.8093032837;93.5539550781;93.3836975098;1;9;93.6962585449
91.1747512817;92.8093032837;93.5539550781;93.3836975098;93.6962585449;1;10;93.2462234497
92.8093032837;93.5539550781;93.3836975098;93.6962585449;93.2462234497;1;11;93.8271942139
93.5539550781;93.3836975098;93.6962585449;93.2462234497;93.8271942139;1;12;93.6321868896
93.3836975098;93.6962585449;93.2462234497;93.8271942139;93.6321868896;1;13;93.2489700317
93.6962585449;93.2462234497;93.8271942139;93.6321868896;93.2489700317;1;14;93.1852111816
93.2462234497;93.8271942139;93.6321868896;93.2489700317;93.1852111816;1;15;93.2864303589
93.8271942139;93.6321868896;93.2489700317;93.1852111816;93.2864303589;1;16;93.5336074829
93.6321868896;93.2489700317;93.1852111816;93.2864303589;93.5336074829;1;17;93.4824523926
93.2489700317;93.1852111816;93.2864303589;93.5336074829;93.4824523926;1;18;93.8943786621
93.1852111816;93.2864303589;93.5336074829;93.4824523926;93.8943786621;1;19;93.064453125
93.2864303589;93.5336074829;93.4824523926;93.8943786621;93.064453125;1;20;93.8894348145
93.5336074829;93.4824523926;93.8943786621;93.064453125;93.8894348145;1;21;94.1302337646
93.4824523926;93.8943786621;93.064453125;93.8894348145;94.1302337646;1;22;93.5094909668
93.8943786621;93.064453125;93.8894348145;94.1302337646;93.5094909668;1;23;92.873336792
93.064453125;93.8894348145;94.1302337646;93.5094909668;92.873336792;1;24;92.9455947876
93.8894348145;94.1302337646;93.5094909668;92.873336792;92.9455947876;1;25;92.4656829834
94.1302337646;93.5094909668;92.873336792;92.9455947876;92.4656829834;1;26;91.4424743652
93.5094909668;92.873336792;92.9455947876;92.4656829834;91.4424743652;1;27;91.4178543091
92.873336792;92.9455947876;92.4656829834;91.4424743652;91.4178543091;1;28;90.0023345947
92.9455947876;92.4656829834;91.4424743652;91.4178543091;90.0023345947;1;29;89.5832519531
92.4656829834;91.4424743652;91.4178543091;90.0023345947;89.5832519531;1;30;88.9579467773
91.4424743652;91.4178543091;90.0023345947;89.5832519531;88.9579467773;1;31;88.8137817383
91.4178543091;90.0023345947;89.5832519531;88.9579467773;88.8137817383;1;32;88.1362838745
90.0023345947;89.5832519531;88.9579467773;88.8137817383;88.1362838745;1;33;89.4229202271
89.5832519531;88.9579467773;88.8137817383;88.1362838745;89.4229202271;1;34;90.1070404053
88.9579467773;88.8137817383;88.1362838745;89.4229202271;90.1070404053;1;35;90.148109436
88.8137817383;88.1362838745;89.4229202271;90.1070404053;90.148109436;1;36;90.076385498
88.1362838745;89.4229202271;90.1070404053;90.148109436;90.076385498;1;37;90.9540634155
89.4229202271;90.1070404053;90.148109436;90.076385498;90.9540634155;1;38;91.0040054321
90.1070404053;90.148109436;90.076385498;90.9540634155;91.0040054321;1;39;90.4894561768
90.148109436;90.076385498;90.9540634155;91.0040054321;90.4894561768;1;40;91.3503646851
90.076385498;90.9540634155;91.0040054321;90.4894561768;91.3503646851;1;41;91.8115615845
90.9540634155;91.0040054321;90.4894561768;91.3503646851;91.8115615845;1;42;90.3851089478
91.0040054321;90.4894561768;91.3503646851;91.8115615845;90.3851089478;1;43;89.634223938
90.4894561768;91.3503646851;91.8115615845;90.3851089478;89.634223938;1;44;89.4493408203
91.3503646851;91.8115615845;90.3851089478;89.634223938;89.4493408203;1;45;88.1415863037
91.8115615845;90.3851089478;89.634223938;89.4493408203;88.1415863037;1;46;87.7912216187
90.3851089478;89.634223938;89.4493408203;88.1415863037;87.7912216187;1;47;86.7726287842
89.634223938;89.4493408203;88.1415863037;87.7912216187;86.7726287842;1;48;87.1617889404
89.4493408203;88.1415863037;87.7912216187;86.7726287842;87.1617889404;1;49;87.277961731
88.1415863037;87.7912216187;86.7726287842;87.1617889404;87.277961731;1;50;86.2796859741
87.7912216187;86.7726287842;87.1617889404;87.277961731;86.2796859741;1;51;87.6660766602
86.7726287842;87.1617889404;87.277961731;86.2796859741;87.6660766602;1;52;88.0764541626
87.1617889404;87.277961731;86.2796859741;87.6660766602;88.0764541626;1;53;88.4745559692
87.277961731;86.2796859741;87.6660766602;88.0764541626;88.4745559692;1;54;84.760093689
101.44669342;103.362609863;103.303123474;103.394393921;104.54058075;1;0;103.696929932
103.362609863;103.303123474;103.394393921;104.54058075;103.696929932;1;1;105.342758179
103.303123474;103.394393921;104.54058075;103.696929932;105.342758179;1;2;104.670783997
103.394393921;104.54058075;103.696929932;105.342758179;104.670783997;1;3;105.556175232
104.54058075;103.696929932;105.342758179;104.670783997;105.556175232;1;4;107.300704956
103.696929932;105.342758179;104.670783997;105.556175232;107.300704956;1;5;105.748161316
105.342758179;104.670783997;105.556175232;107.300704956;105.748161316;1;6;107.566963196
104.670783997;105.556175232;107.300704956;105.748161316;107.566963196;1;7;107.704734802
105.556175232;107.300704956;105.748161316;107.566963196;107.704734802;1;8;106.252502441
107.300704956;105.748161316;107.566963196;107.704734802;106.252502441;1;9;107.809883118
105.748161316;107.566963196;107.704734802;106.252502441;107.809883118;1;10;106.284133911
107.566963196;107.704734802;106.252502441;107.809883118;106.284133911;1;11;106.410606384
107.704734802;106.252502441;107.809883118;106.284133911;106.410606384;1;12;106.779708862
106.252502441;107.809883118;106.284133911;106.410606384;106.779708862;1;13;106.078788757
107.809883118;106.284133911;106.410606384;106.779708862;106.078788757;1;14;107.168586731
106.284133911;106.410606384;106.779708862;106.078788757;107.168586731;1;15;106.878944397
106.410606384;106.779708862;106.078788757;107.168586731;106.878944397;1;16;109.758148193
106.779708862;106.078788757;107.168586731;106.878944397;109.758148193;1;17;108.225158691
106.078788757;107.168586731;106.878944397;109.758148193;108.225158691;1;18;109.163414001
107.168586731;106.878944397;109.758148193;108.225158691;109.163414001;1;19;110.580375671
106.878944397;109.758148193;108.225158691;109.163414001;110.580375671;1;20;108.781684875
109.758148193;108.225158691;109.163414001;110.580375671;108.781684875;1;21;110.861419678
108.225158691;109.163414001;110.580375671;108.781684875;110.861419678;1;22;112.326004028
109.163414001;110.580375671;108.781684875;110.861419678;112.326004028;1;23;111.934646606
110.580375671;108.781684875;110.861419678;112.326004028;111.934646606;1;24;111.972167969
108.781684875;110.861419678;112.326004028;111.934646606;111.972167969;1;25;110.105278015
110.861419678;112.326004028;111.934646606;111.972167969;110.105278015;1;26;113.423332214
112.326004028;111.934646606;111.972167969;110.105278015;113.423332214;1;27;107.770553589
111.934646606;111.972167969;110.105278015;113.423332214;107.770553589;1;28;103.888336182
111.972167969;110.105278015;113.423332214;107.770553589;103.888336182;1;29;103.301704407
110.105278015;113.423332214;107.770553589;103.888336182;103.301704407;1;30;99.3036651611
113.423332214;107.770553589;103.888336182;103.301704407;99.3036651611;1;31;102.090835571
107.770553589;103.888336182;103.301704407;99.3036651611;102.090835571;1;32;107.946212769
103.888336182;103.301704407;99.3036651611;102.090835571;107.946212769;1;33;106.435638428
103.301704407;99.3036651611;102.090835571;107.946212769;106.435638428;1;34;107.039009094
99.3036651611;102.090835571;107.946212769;106.435638428;107.039009094;1;35;107.086128235
102.090835571;107.946212769;106.435638428;107.039009094;107.086128235;1;36;104.030410767
107.946212769;106.435638428;107.039009094;107.086128235;104.030410767;1;37;107.093467712
106.435638428;107.039009094;107.086128235;104.030410767;107.093467712;1;38;105.582832336
107.039009094;107.086128235;104.030410767;107.093467712;105.582832336;1;39;106.963729858
107.086128235;104.030410767;107.093467712;105.582832336;106.963729858;1;40;107.321968079
104.030410767;107.093467712;105.582832336;106.963729858;107.321968079;1;41;109.8436203
107.093467712;105.582832336;106.963729858;107.321968079;109.8436203;1;42;108.597251892
105.582832336;106.963729858;107.321968079;109.8436203;108.597251892;1;43;106.188697815
106.963729858;107.321968079;109.8436203;108.597251892;106.188697815;1;44;108.27772522
107.321968079;109.8436203;108.597251892;106.188697815;108.27772522;1;45;108.633903503
109.8436203;108.597251892;106.188697815;108.27772522;108.633903503;1;46;109.692733765
108.597251892;106.188697815;108.27772522;108.633903503;109.692733765;1;47;111.844741821
106.188697815;108.27772522;108.633903503;109.692733765;111.844741821;1;48;113.781387329
108.27772522;108.633903503;109.692733765;111.844741821;113.781387329;1;49;110.461791992
108.633903503;109.692733765;111.844741821;113.781387329;110.461791992;1;50;106.983604431
109.692733765;111.844741821;113.781387329;110.461791992;106.983604431;1;51;110.448303223
111.844741821;113.781387329;110.461791992;106.983604431;110.448303223;1;52;109.674179077
113.781387329;110.461791992;106.983604431;110.448303223;109.674179077;1;53;109.420585632
110.461791992;106.983604431;110.448303223;109.674179077;109.420585632;1;54;111.059646606
94.5140838623;94.1703338623;93.1759872437;95.7889099121;87.2070007324;1;0;94.0359344482
94.1703338623;93.1759872437;95.7889099121;87.2070007324;94.0359344482;1;1;94.3204574585
93.1759872437;95.7889099121;87.2070007324;94.0359344482;94.3204574585;1;2;93.3734207153
95.7889099121;87.2070007324;94.0359344482;94.3204574585;93.3734207153;1;3;92.8622360229
87.2070007324;94.0359344482;94.3204574585;93.3734207153;92.8622360229;1;4;93.2349014282
94.0359344482;94.3204574585;93.3734207153;92.8622360229;93.2349014282;1;5;93.7960968018
94.3204574585;93.3734207153;92.8622360229;93.2349014282;93.7960968018;1;6;92.7875061035
93.3734207153;92.8622360229;93.2349014282;93.7960968018;92.7875061035;1;7;93.1172637939
92.8622360229;93.2349014282;93.7960968018;92.7875061035;93.1172637939;1;8;95.5630645752
93.2349014282;93.7960968018;92.7875061035;93.1172637939;95.5630645752;1;9;95.345375061
93.7960968018;92.7875061035;93.1172637939;95.5630645752;95.345375061;1;10;95.6123962402
92.7875061035;93.1172637939;95.5630645752;95.345375061;95.6123962402;1;11;95.5104827881
93.1172637939;95.5630645752;95.345375061;95.6123962402;95.5104827881;1;12;96.5176849365
95.5630645752;95.345375061;95.6123962402;95.5104827881;96.5176849365;1;13;96.722038269
95.345375061;95.6123962402;95.5104827881;96.5176849365;96.722038269;1;14;95.8210220337
95.6123962402;95.5104827881;96.5176849365;96.722038269;95.8210220337;1;15;95.4379348755
95.5104827881;96.5176849365;96.722038269;95.8210220337;95.4379348755;1;16;96.5299682617
96.5176849365;96.722038269;95.8210220337;95.4379348755;96.5299682617;1;17;96.165977478
96.722038269;95.8210220337;95.4379348755;96.5299682617;96.165977478;1;18;95.7570343018
95.8210220337;95.4379348755;96.5299682617;96.165977478;95.7570343018;1;19;94.4001998901
95.4379348755;96.5299682617;96.165977478;95.7570343018;94.4001998901;1;20;99.1947021484
96.5299682617;96.165977478;95.7570343018;94.4001998901;99.1947021484;1;21;98.5832519531
96.165977478;95.7570343018;94.4001998901;99.1947021484;98.5832519531;1;22;98.11302948
95.7570343018;94.4001998901;99.1947021484;98.5832519531;98.11302948;1;23;97.2318115234
94.4001998901;99.1947021484;98.5832519531;98.11302948;97.2318115234;1;24;97.8024139404
99.1947021484;98.5832519531;98.11302948;97.2318115234;97.8024139404;1;25;97.8687973022
98.5832519531;98.11302948;97.2318115234;97.8024139404;97.8687973022;1;26;96.3122711182
98.11302948;97.2318115234;97.8024139404;97.8687973022;96.3122711182;1;27;98.5580291748
97.2318115234;97.8024139404;97.8687973022;96.3122711182;98.5580291748;1;28;100.333114624
97.8024139404;97.8687973022;96.3122711182;98.5580291748;100.333114624;1;29;101.782829285
97.8687973022;96.3122711182;98.5580291748;100.333114624;101.782829285;1;30;98.9442825317
96.3122711182;98.5580291748;100.333114624;101.782829285;98.9442825317;1;31;99.1509780884
98.5580291748;100.333114624;101.782829285;98.9442825317;99.1509780884;1;32;97.166557312
100.333114624;101.782829285;98.9442825317;99.1509780884;97.166557312;1;33;99.5505065918
101.782829285;98.9442825317;99.1509780884;97.166557312;99.5505065918;1;34;100.104705811
98.9442825317;99.1509780884;97.166557312;99.5505065918;100.104705811;1;35;103.203125
99.1509780884;97.166557312;99.5505065918;100.104705811;103.203125;1;36;93.8026199341
97.166557312;99.5505065918;100.104705811;103.203125;93.8026199341;1;37;102.865409851
99.5505065918;100.104705811;103.203125;93.8026199341;102.865409851;1;38;93.635017395
100.104705811;103.203125;93.8026199341;102.865409851;93.635017395;1;39;99.1886138916
103.203125;93.8026199341;102.865409851;93.635017395;99.1886138916;1;40;97.7537536621
93.8026199341;102.865409851;93.635017395;99.1886138916;97.7537536621;1;41;95.8668746948
102.865409851;93.635017395;99.1886138916;97.7537536621;95.8668746948;1;42;96.2190246582
93.635017395;99.1886138916;97.7537536621;95.8668746948;96.2190246582;1;43;97.814491272
99.1886138916;97.7537536621;95.8668746948;96.2190246582;97.814491272;1;44;96.2881469727
97.7537536621;95.8668746948;96.2190246582;97.814491272;96.2881469727;1;45;96.8871688843
95.8668746948;96.2190246582;97.814491272;96.2881469727;96.8871688843;1;46;97.0556335449
96.2190246582;97.814491272;96.2881469727;96.8871688843;97.0556335449;1;47;96.2261581421
97.814491272;96.2881469727;96.8871688843;97.0556335449;96.2261581421;1;48;93.7106018066
96.2881469727;96.8871688843;97.0556335449;96.2261581421;93.7106018066;1;49;93.6761550903
96.8871688843;97.0556335449;96.2261581421;93.7106018066;93.6761550903;1;50;99.5659790039
97.0556335449;96.2261581421;93.7106018066;93.6761550903;99.5659790039;1;51;90.7299880981
96.2261581421;93.7106018066;93.6761550903;99.5659790039;90.7299880981;1;52;96.5069885254
93.7106018066;93.6761550903;99.5659790039;90.7299880981;96.5069885254;1;53;95.9352493286
93.6761550903;99.5659790039;90.7299880981;96.5069885254;95.9352493286;1;54;95.8971786499
